[
    {
        "id" : 1,
        "productName" : "Product 1",
        "order1" : 1,
        "order2" : 1
    },
    {
        "id" : 2,
        "productName" : "Product 2",
        "order1" : 5,
        "order2" : 17
    },
    {
        "id" : 3,
        "productName" : "Product 3",
        "order1" : 19,
        "order2" : 18
    },
    {
        "id" : 4,
        "productName" : "Product 4",
        "order1" : 4,
        "order2" : 4
    },
    {
        "id" : 5,
        "productName" : "Product 5",
        "order1" : 2,
        "order2" : 7
    }
]