[
    {
        "id" : 1,
        "field_2" : "Pera",
        "field_3" : "Peric",
        "field_4" : "Organization 1",
        "field_5" : "Adresa 1",
        "field_6" : "Adresa 2",
        "field_7" : "Bgd",
        "field_16" : 1,
        "field_18" : 5,
        "field_38" : "Lorem Ipsum",
        "field_44" : "8/31/2019",
        "field_34" : [7,9]
    },
    {
        "id" : 2,
        "field_2" : "Zika",
        "field_3" : "Zikic",
        "field_4" : "Organization 2",
        "field_5" : "Adresa 3",
        "field_6" : "Adresa 4",
        "field_7" : "Novi Sad",
        "field_16" : 1,
        "field_18" : 5,
        "field_38" : "Lorem Ipsum, Lorem ipsum...",
        "field_44" : "7/30/2016",
        "field_34" : [7,10]
    },
    {
        "id" : 3,
        "field_2" : "Mika",
        "field_3" : "Mikic",
        "field_4" : "Organization 3",
        "field_5" : "Adresa 5",
        "field_6" : "Adresa 6",
        "field_7" : "Nis",
        "field_16" : 1,
        "field_18" : 6,
        "field_38" : "Lorem Ipsum, Lorem Ipsum, Lorem Ipsum",
        "field_44" : "7/3/2019",
        "field_34" : []
    }
]